{
  "source": {
    "exclude": [
      ".s2i",
      "coverage",
      "docs",
      "loadTest",
      "node_modules",
      "unitTest",
      "uploads",
      ".eslintignore",
      ".eslintrc.js",
      ".gitignore",
      ".gitlab-ci.yml",
      "artillery.yml",
      "package-lock.json"
    ]
  },
  "opts": {
    "destination": "jsdoc/",
    "readme": "./README.md",
    "package": "package.json",
    "recurse": true,
    "encoding": "utf8",
    "template": "node_modules/docdash"
  },
  "docdash": {
    "openGraph": {
      "title": "Cafe api project jsdoc",
      "type": "website",
      "image": "http://192.168.222.60:8001/uploads/-/system/project/avatar/151/Cafe_API.png?width=160",
      "site_name": "Cafe api project jsdoc",
      "url": "http://website-sit.eab-cafe.intraeab/"
    },
    "meta": {
      "title": "Cafe api project jsdoc",
      "description": "A clean, responsive documentation template theme for JSDoc 3.",
      "keyword": "cafe, jsdoc"
    },
    "search": true,
    "collapse": true,
    "typedefs": true,
    "removeQuotes": "none",
    "menu":{
      "Gitlab repo":{
        "href":"http://192.168.222.60:8001/eab-cafe",
        "target":"_blank",
        "class":"menu-item",
        "id":"repository"
      }
    }
  }
}